<svg width="25" height="24" viewBox="0 0 25 24" fill="none" xmlns="http://www.w3.org/2000/svg">
<path d="M12.5 4L11.09 5.41L16.67 11H4.5V13H16.67L11.09 18.59L12.5 20L20.5 12L12.5 4Z" fill="currentColor" fill-opacity="0.54"/>
</svg>
