<svg width="56" height="56" viewBox="0 0 56 56" fill="none" xmlns="http://www.w3.org/2000/svg">
<path d="M21.9461 42.3781C17.905 42.3781 13.9546 41.1797 10.5945 38.9346C7.23437 36.6894 4.61549 33.4983 3.06901 29.7648C1.52252 26.0312 1.11789 21.923 1.90628 17.9595C2.69467 13.996 4.64068 10.3552 7.4982 7.49771C10.3557 4.64019 13.9964 2.69419 17.9599 1.9058C21.9234 1.11741 26.0317 1.52204 29.7653 3.06852C33.4988 4.615 36.6899 7.23388 38.9351 10.594C41.1802 13.9541 42.3785 17.9045 42.3785 21.9456C42.3785 27.3646 40.2258 32.5617 36.394 36.3935C32.5622 40.2254 27.3651 42.3781 21.9461 42.3781ZM21.9461 3.02671C18.2043 3.02671 14.5465 4.13628 11.4353 6.21512C8.32413 8.29396 5.89924 11.2487 4.46731 14.7057C3.03538 18.1626 2.66073 21.9666 3.39072 25.6365C4.12071 29.3064 5.92256 32.6775 8.56842 35.3233C11.2143 37.9692 14.5853 39.771 18.2552 40.501C21.9251 41.231 25.7291 40.8564 29.1861 39.4244C32.643 37.9925 35.5978 35.5676 37.6766 32.4564C39.7555 29.3452 40.865 25.6874 40.865 21.9456C40.865 19.4612 40.3757 17.001 39.4249 14.7057C38.4741 12.4103 37.0806 10.3247 35.3238 8.56793C33.567 6.81115 31.4814 5.41759 29.1861 4.46682C26.8907 3.51606 24.4306 3.02671 21.9461 3.02671Z" fill="#336FEE"/>
<path d="M49.9455 54.4865C49.349 54.4889 48.758 54.3724 48.2071 54.1437C47.6561 53.915 47.1563 53.5788 46.7368 53.1546L39.245 45.6627C38.7989 45.2471 38.441 44.7458 38.1929 44.1888C37.9447 43.6318 37.8113 43.0306 37.8005 42.4209C37.7898 41.8113 37.9019 41.2057 38.1303 40.6403C38.3586 40.0749 38.6985 39.5613 39.1297 39.1302C39.5609 38.699 40.0745 38.3591 40.6398 38.1308C41.2052 37.9024 41.8108 37.7902 42.4204 37.801C43.0301 37.8118 43.6314 37.9452 44.1883 38.1934C44.7453 38.4415 45.2466 38.7993 45.6623 39.2454L53.1541 46.7373C53.7883 47.3723 54.2201 48.181 54.395 49.0613C54.5699 49.9415 54.48 50.8539 54.1366 51.683C53.7933 52.5122 53.212 53.2211 52.466 53.72C51.72 54.219 50.843 54.4857 49.9455 54.4865ZM42.4536 39.4271C41.8546 39.4266 41.2689 39.6039 40.7706 39.9365C40.2724 40.269 39.8841 40.742 39.6548 41.2954C39.4254 41.8488 39.3655 42.4578 39.4825 43.0453C39.5995 43.6328 39.8882 44.1724 40.312 44.5957L47.8039 52.0876C48.381 52.6381 49.1479 52.9453 49.9455 52.9453C50.7431 52.9453 51.51 52.6381 52.0871 52.0876C52.3686 51.8065 52.5918 51.4726 52.7442 51.1052C52.8965 50.7377 52.9749 50.3438 52.9749 49.946C52.9749 49.5482 52.8965 49.1543 52.7442 48.7868C52.5918 48.4193 52.3686 48.0855 52.0871 47.8044L44.5952 40.3125C44.3139 40.0315 43.98 39.8086 43.6125 39.6567C43.245 39.5048 42.8512 39.4268 42.4536 39.4271Z" fill="#336FEE"/>
<path d="M35.3184 36.3945L36.3884 35.3245L40.3102 39.2462L39.2401 40.3163L35.3184 36.3945Z" fill="#336FEE"/>
<path d="M45.3164 50.6782L50.6667 45.328L51.7367 46.398L46.3865 51.7483L45.3164 50.6782Z" fill="#336FEE"/>
<path d="M31.2774 33.998H12.7373C12.5418 33.998 12.3542 33.9177 12.216 33.7748C12.0777 33.6319 12 33.438 12 33.2359V27.0056C12 26.3467 12.1258 25.6943 12.3702 25.0858C12.6145 24.4772 12.9727 23.9245 13.4241 23.4593C13.8755 22.9941 14.4113 22.6256 15.0007 22.3749C15.5902 22.1241 16.2217 21.9961 16.8591 21.9981H27.1556C28.4404 21.9981 29.6726 22.5256 30.5811 23.4647C31.4896 24.4038 32 25.6775 32 27.0056V33.2359C32 33.4354 31.9244 33.627 31.7893 33.7695C31.6542 33.912 31.4704 33.9941 31.2774 33.998ZM13.4747 32.4737H30.5401V27.0056C30.5391 26.5472 30.4508 26.0934 30.2802 25.6703C30.1096 25.2472 29.86 24.8629 29.5457 24.5395C29.2315 24.216 28.8586 23.9597 28.4485 23.7852C28.0384 23.6107 27.5991 23.5214 27.1556 23.5224H16.8591C15.966 23.5244 15.1101 23.8921 14.4785 24.5448C13.847 25.1976 13.4914 26.0824 13.4894 27.0056L13.4747 32.4737Z" fill="#336FEE"/>
<path fill-rule="evenodd" clip-rule="evenodd" d="M22 18.498C24.4853 18.498 26.5 16.4833 26.5 13.998C26.5 11.5128 24.4853 9.49805 22 9.49805C19.5147 9.49805 17.5 11.5128 17.5 13.998C17.5 16.4833 19.5147 18.498 22 18.498ZM22 19.998C25.3137 19.998 28 17.3118 28 13.998C28 10.6843 25.3137 7.99805 22 7.99805C18.6863 7.99805 16 10.6843 16 13.998C16 17.3118 18.6863 19.998 22 19.998Z" fill="#336FEE"/>
</svg>
