<svg width="56" height="56" viewBox="0 0 56 56" fill="none" xmlns="http://www.w3.org/2000/svg">
<path fill-rule="evenodd" clip-rule="evenodd" d="M7.5 37.1429V26.8571C7.5 26.1076 6.89239 25.5 6.14286 25.5C4.13096 25.5 2.5 27.131 2.5 29.1429V34.8571C2.5 36.869 4.13096 38.5 6.14286 38.5C6.89239 38.5 7.5 37.8924 7.5 37.1429ZM6.14286 24C3.30254 24 1 26.3025 1 29.1429V34.8571C1 37.6975 3.30254 40 6.14286 40C7.72081 40 9 38.7208 9 37.1429V26.8571C9 25.2792 7.72081 24 6.14286 24Z" fill="#336FEE"/>
<path fill-rule="evenodd" clip-rule="evenodd" d="M48.5 26.8571V37.1429C48.5 37.8924 49.1076 38.5 49.8571 38.5C51.869 38.5 53.5 36.869 53.5 34.8571V29.1429C53.5 27.131 51.869 25.5 49.8571 25.5C49.1076 25.5 48.5 26.1076 48.5 26.8571ZM49.8571 40C52.6975 40 55 37.6975 55 34.8571V29.1429C55 26.3025 52.6975 24 49.8571 24C48.2792 24 47 25.2792 47 26.8571V37.1429C47 38.7208 48.2792 40 49.8571 40Z" fill="#336FEE"/>
<path fill-rule="evenodd" clip-rule="evenodd" d="M31 53.5H35C36.3807 53.5 37.5 52.3807 37.5 51C37.5 49.6193 36.3807 48.5 35 48.5H31C29.6193 48.5 28.5 49.6193 28.5 51C28.5 52.3807 29.6193 53.5 31 53.5ZM39 51C39 48.7909 37.2091 47 35 47H31C28.7909 47 27 48.7909 27 51C27 53.2091 28.7909 55 31 55H35C37.2091 55 39 53.2091 39 51Z" fill="#336FEE"/>
<path fill-rule="evenodd" clip-rule="evenodd" d="M39.5 30.9457V20C39.5 18.067 37.933 16.5 36 16.5L19.787 16.5C17.9716 16.5 16.5 17.9716 16.5 19.787L16.5 29.9159C16.5 31.8654 18.0804 33.4457 20.0298 33.4457C21.0494 33.4458 21.8866 34.2516 21.9255 35.2704L22.0606 38.8031C22.0636 38.8811 22.0856 38.9226 22.1058 38.9494C22.1309 38.9825 22.1725 39.0164 22.2292 39.038C22.286 39.0596 22.3395 39.062 22.3803 39.0539C22.4123 39.0476 22.4547 39.032 22.5066 38.9797L26.6466 34.5546C27.3084 33.8472 28.2338 33.4457 29.2024 33.4457H37C38.3807 33.4457 39.5 32.3265 39.5 30.9457ZM23.5923 40.0148C22.5149 41.1345 20.6211 40.4131 20.5617 38.8604L20.4266 35.3277C20.4185 35.1144 20.2432 34.9458 20.0298 34.9457C17.2519 34.9457 15 32.6938 15 29.9159L15 19.787C15 17.1432 17.1432 15 19.787 15L36 15C38.7614 15 41 17.2386 41 20V30.9457C41 33.1549 39.2091 34.9457 37 34.9457H29.2024C28.6489 34.9457 28.1201 35.1752 27.742 35.5794L23.5923 40.0148Z" fill="#336FEE"/>
<path fill-rule="evenodd" clip-rule="evenodd" d="M28 2.75C15.7117 2.75 5.75 12.7117 5.75 25H4.25C4.25 11.8832 14.8832 1.25 28 1.25C41.1168 1.25 51.75 11.8832 51.75 25H50.25C50.25 12.7117 40.2883 2.75 28 2.75Z" fill="#336FEE"/>
<path d="M23.5 24.5C23.5 25.3284 22.8284 26 22 26C21.1716 26 20.5 25.3284 20.5 24.5C20.5 23.6716 21.1716 23 22 23C22.8284 23 23.5 23.6716 23.5 24.5Z" fill="#336FEE"/>
<path d="M29.5 24.5C29.5 25.3284 28.8284 26 28 26C27.1716 26 26.5 25.3284 26.5 24.5C26.5 23.6716 27.1716 23 28 23C28.8284 23 29.5 23.6716 29.5 24.5Z" fill="#336FEE"/>
<path d="M35.5 24.5C35.5 25.3284 34.8284 26 34 26C33.1716 26 32.5 25.3284 32.5 24.5C32.5 23.6716 33.1716 23 34 23C34.8284 23 35.5 23.6716 35.5 24.5Z" fill="#336FEE"/>
<path fill-rule="evenodd" clip-rule="evenodd" d="M51 39.25C51.4142 39.25 51.75 39.5858 51.75 40V44.4709C51.75 47.9593 48.89 50.0997 46.7053 50.7214C43.2758 51.6973 41.9251 51.7291 39 51.7291C38.5858 51.7291 38.25 51.3933 38.25 50.9791C38.25 50.5649 38.5858 50.2291 39 50.2291C41.8396 50.2291 43.0419 50.2043 46.2947 49.2786C48.11 48.7621 50.25 47.0407 50.25 44.4709V40C50.25 39.5858 50.5858 39.25 51 39.25Z" fill="#336FEE"/>
</svg>
