<svg width="20" height="20" viewBox="0 0 20 20" fill="none" xmlns="http://www.w3.org/2000/svg">
<path fill-rule="evenodd" clip-rule="evenodd" d="M6.3 11.7V8.3H2V11.7H6.3ZM8.3 11.7H18V8.3H8.3V11.7ZM6.3 2H3C2.44772 2 2 2.44772 2 3V6.3H6.3V2ZM8.3 2V6.3H18V3C18 2.44772 17.5523 2 17 2H8.3ZM6.3 18V13.7H2V17C2 17.5523 2.44772 18 3 18H6.3ZM8.3 18H17C17.5523 18 18 17.5523 18 17V13.7H8.3V18ZM0 17V3C0 1.34315 1.34315 0 3 0H17C18.6569 0 20 1.34315 20 3V17C20 18.6569 18.6569 20 17 20H3C1.34315 20 0 18.6569 0 17Z" fill="currentColor"/>
</svg>
