<svg width="149" height="38" viewBox="0 0 149 38" fill="none" xmlns="http://www.w3.org/2000/svg">
<path d="M28.1797 1.07544H1.15967V23.5093L14.6697 36.9245V9.98134L28.1797 23.3966V1.07544Z" fill="#828282"/>
<path d="M28.1795 23.5094L14.6694 36.9246V9.98145L28.1795 23.5094Z" fill="#C6C6C6"/>
<path d="M142.39 2.99292C136.941 2.99292 136.94 6.93769 136.94 11.1088C136.94 15.2799 136.941 19.2247 142.39 19.2247C147.84 19.2247 147.841 15.2799 147.841 11.1088C147.841 6.93769 147.84 2.99292 142.39 2.99292ZM41.9166 3.3298L37.6016 19.0001H40.7813L41.6904 15.5058H46.2316L47.1385 19.0001H50.6575L46.3447 3.3298H41.9166ZM53.3826 3.3298V19.0001H59.1722C60.5345 19.0001 64.0548 18.7755 64.0548 14.8299C64.0548 12.6879 63.4876 11.2224 61.1035 10.8842C62.92 10.546 63.8287 9.19147 63.8287 7.38774C63.8287 4.00576 61.7851 3.3298 59.2875 3.3298H53.3826ZM67.9153 3.3298V19.0001H70.9797V7.50224H71.0928L75.4078 19.0001H79.7228V3.3298H76.6562V14.1517L72.4565 3.3298H67.9153ZM92.4372 3.3298L88.1222 19.0001H91.3019L92.2111 15.5058H96.7523L97.6592 19.0001H101.178L96.7523 3.3298H92.4372ZM103.79 3.3298V19.0001H106.97V6.93857H107.083L109.921 19.0001H113.099L116.165 6.93857V19.0001H119.343V3.3298H114.234L111.624 14.0394L109.125 3.3298H103.79ZM123.658 3.44208V19.0001H126.951V12.4607H127.858C130.355 12.4607 130.243 14.0407 130.243 15.9572C130.243 16.9718 130.129 17.9855 130.583 19.0001H133.762C133.422 18.3237 133.421 15.3931 133.421 14.3785C133.421 11.5602 131.264 11.3334 130.583 11.3334C132.74 10.9952 133.534 9.53143 133.534 7.50224C133.534 4.79665 132.06 3.44209 129.789 3.44209L123.658 3.44208ZM142.39 5.47215C144.207 5.47215 144.435 7.16271 144.435 11.2211C144.435 15.2795 144.32 16.97 142.39 16.97C140.574 16.97 140.346 15.2795 140.346 11.2211C140.346 7.16271 140.574 5.47215 142.39 5.47215ZM56.6754 5.69674H58.7198C59.8551 5.69674 60.649 6.59948 60.649 7.72681C60.649 9.19234 59.6272 9.75688 58.946 9.75688H56.6754V5.69674ZM126.951 5.69674H128.425C129.447 5.69674 130.128 6.26128 130.128 7.72681C130.128 8.74141 129.788 9.98147 128.425 9.98147H126.951V5.69674ZM43.8457 6.3749L45.5486 13.1389H42.3711L43.8457 6.3749ZM94.3664 6.3749L96.0693 13.1389H92.8918L94.3664 6.3749ZM84.9625 7.85892L82.8759 9.93303L84.9647 12.0049L87.0512 9.93083L84.9625 7.85892ZM56.6754 12.1238H58.6045C60.3075 12.1238 60.762 13.0257 60.762 14.3785C60.762 16.5204 59.1726 16.6331 58.4914 16.6331H56.6754V12.1238Z" fill="#828282"/>
</svg>
